<?xml version="1.0" encoding="UTF-8" standalone="no"?>
<svg
   xmlns:dc="http://purl.org/dc/elements/1.1/"
   xmlns:cc="http://creativecommons.org/ns#"
   xmlns:rdf="http://www.w3.org/1999/02/22-rdf-syntax-ns#"
   xmlns:svg="http://www.w3.org/2000/svg"
   xmlns="http://www.w3.org/2000/svg"
   xmlns:sodipodi="http://sodipodi.sourceforge.net/DTD/sodipodi-0.dtd"
   xmlns:inkscape="http://www.inkscape.org/namespaces/inkscape"
   width="23.8125mm"
   height="23.8125mm"
   viewBox="0 0 23.8125 23.8125"
   version="1.1"
   id="svg935"
   inkscape:version="1.0.2 (1.0.2+r75+1)"
   sodipodi:docname="atlas-mini-favicon.svg"
   inkscape:export-filename="/home/lual/Desktop/projects/mini-atlas/public/favicon.png"
   inkscape:export-xdpi="299.73334"
   inkscape:export-ydpi="299.73334">
  <defs
     id="defs929" />
  <sodipodi:namedview
     id="base"
     pagecolor="#ffffff"
     bordercolor="#666666"
     borderopacity="1.0"
     inkscape:pageopacity="0.0"
     inkscape:pageshadow="2"
     inkscape:zoom="12.511111"
     inkscape:cx="45"
     inkscape:cy="77.792473"
     inkscape:document-units="px"
     inkscape:current-layer="layer1"
     inkscape:document-rotation="0"
     showgrid="false"
     inkscape:window-width="1920"
     inkscape:window-height="767"
     inkscape:window-x="0"
     inkscape:window-y="0"
     inkscape:window-maximized="1" />
  <metadata
     id="metadata932">
    <rdf:RDF>
      <cc:Work
         rdf:about="">
        <dc:format>image/svg+xml</dc:format>
        <dc:type
           rdf:resource="http://purl.org/dc/dcmitype/StillImage" />
        <dc:title></dc:title>
      </cc:Work>
    </rdf:RDF>
  </metadata>
  <g
     inkscape:label="Layer 1"
     inkscape:groupmode="layer"
     id="layer1"
     transform="translate(-127.94495,-259.48065)">
    <rect
       style="fill:#fbfbfb;fill-opacity:1;stroke-width:0.529167;stroke-linecap:round;stroke-linejoin:round"
       id="rect915"
       width="23.8125"
       height="23.8125"
       x="-283.29315"
       y="127.94495"
       rx="7.9375"
       ry="7.9375"
       transform="rotate(-90)" />
    <path
       d="m 143.6768,266.6779 -4.3279,9.418 h 2.097 l 0.89504,-2.0841 h 4.3822 l 0.89504,2.0841 h 2.0572 l -4.3284,-9.418 z m -4.485,0.154 1.5343,2.5265 1.048,-2.5187 z m -4.5346,0.004 c -2.5559,0 -4.6302,2.0743 -4.6302,4.6302 0,2.5559 2.0743,4.6302 4.6302,4.6302 2.5559,0 4.6302,-2.0743 4.6302,-4.6302 0,-2.5559 -2.0743,-4.6302 -4.6302,-4.6302 z m 1.385,1.19941 c 1.3567,0.54636 2.3198,1.8797 2.3198,3.4308 0,0.96308 -0.37476,1.8431 -0.97669,2.5006 -0.12039,-0.37504 -0.46333,-0.64854 -0.88005,-0.64854 h -0.46302 v -1.3891 c 0,-0.25466 -0.20836,-0.46302 -0.46302,-0.46302 h -2.7781 v -0.92604 h 0.92604 c 0.25466,0 0.46302,-0.20836 0.46302,-0.46302 v -0.92604 h 0.92604 c 0.50932,0 0.92604,-0.41672 0.92604,-0.92604 z m 8.491,0.87385 1.5095,3.5269 h -3.0189 z m -13.4817,1.73327 2.2133,2.2128 v 0.46302 c 0,0.50932 0.41672,0.92604 0.92604,0.92604 v 0.894 c -1.8197,-0.23151 -3.2365,-1.7876 -3.2365,-3.6721 0,-0.28244 0.037,-0.5598 0.0971,-0.82372 z"
       fill="#0066ff"
       stroke-linecap="round"
       stroke-linejoin="round"
       stroke-width="0.083142"
       id="path883-3"
       sodipodi:nodetypes="cccccccccccccssssscscscssccsscsccccccccsccssc" />
  </g>
</svg>
